<?xml version="1.0" encoding="utf-8"?>
<!-- Generator: Adobe Illustrator 21.1.0, SVG Export Plug-In . SVG Version: 6.00 Build 0)  -->
<svg version="1.1" id="Layer_1" opacity="0.1" xmlns="http://www.w3.org/2000/svg" xmlns:xlink="http://www.w3.org/1999/xlink"
	 x="0px" y="0px" viewBox="0 0 496.2 496.2" style="enable-background:new 0 0 496.2 496.2;" xml:space="preserve">
<style type="text/css">
	.st0{fill:#101010;}
	.st1{fill:#FFFFFF;}
	.st2{fill:#A24936;}
	.st3{fill:#272727;}
	.st4{fill:#4A7856;}
	.st5{enable-background:new    ;}
	.st6{fill:#D9D9D9;stroke:#D9D9D9;stroke-width:1.25;stroke-miterlimit:10;}
	.st7{fill:#D9D9D9;stroke:#D9D9D9;stroke-width:1.5;stroke-miterlimit:10;}
	.st8{fill:none;stroke:#272727;stroke-width:5;stroke-miterlimit:10;}
</style>
<path class="st0" d="M248.1,1.1c-136.4,0-247,110.6-247,247s110.6,247,247,247s247-110.6,247-247S384.5,1.1,248.1,1.1z"/>
<path class="st0" d="M248.1,5.4C114.1,5.4,5.4,114.1,5.4,248.1s108.7,242.7,242.7,242.7s242.7-108.7,242.7-242.7
	C490.8,114,382.1,5.4,248.1,5.4z"/>
<g>
	<ellipse class="st1" cx="247.9" cy="248.2" rx="0" ry="0"/>
	<ellipse class="st1" cx="247.9" cy="248.2" rx="0" ry="0"/>
	<ellipse class="st1" cx="247.9" cy="248.2" rx="0" ry="0"/>
	<path class="st1" d="M247.9,248.2L247.9,248.2L247.9,248.2z"/>
	<ellipse class="st1" cx="247.9" cy="248.2" rx="0" ry="0"/>
	<ellipse class="st1" cx="247.9" cy="248.2" rx="0" ry="0"/>
	<ellipse class="st1" cx="247.8" cy="248.2" rx="0" ry="0"/>
	<polygon class="st1" points="247.9,248.3 247.9,248.3 247.9,248.3 247.9,248.2 247.9,248.2 	"/>
	<polygon class="st1" points="247.9,248.3 247.9,248.2 247.9,248.2 247.9,248.2 	"/>
	<path class="st1" d="M247.9,248.3L247.9,248.3L247.9,248.3z"/>
	<ellipse class="st1" cx="248" cy="248.3" rx="0" ry="0"/>
	<polygon class="st1" points="247.9,248.3 247.9,248.3 247.9,248.2 	"/>
	<path class="st1" d="M247.9,248.3L247.9,248.3L247.9,248.3z"/>
	<ellipse class="st1" cx="247.9" cy="248.3" rx="0" ry="0"/>
	<ellipse class="st1" cx="248" cy="248.2" rx="0" ry="0"/>
	<ellipse class="st1" cx="248" cy="248.3" rx="0" ry="0"/>
	<ellipse class="st1" cx="248" cy="248.3" rx="0" ry="0"/>
	<ellipse class="st1" cx="247.9" cy="248.3" rx="0" ry="0"/>
	<ellipse class="st1" cx="248" cy="248.3" rx="0" ry="0"/>
	<path class="st1" d="M247.9,248.3L247.9,248.3L247.9,248.3z"/>
	<ellipse class="st1" cx="247.9" cy="248.3" rx="0" ry="0"/>
	<path class="st1" d="M247.9,248.2L247.9,248.2L247.9,248.2z"/>
	<ellipse class="st1" cx="248" cy="248.3" rx="0" ry="0"/>
	<polygon class="st1" points="247.9,248.2 247.9,248.2 247.9,248.2 	"/>
	<polygon class="st1" points="247.9,248.3 247.9,248.3 247.9,248.3 247.9,248.2 247.9,248.2 247.9,248.2 247.9,248.2 247.9,248.2 
		247.9,248.3 	"/>
	<ellipse class="st1" cx="248" cy="248.3" rx="0" ry="0"/>
	<ellipse class="st1" cx="247.9" cy="248.3" rx="0" ry="0"/>
	<ellipse class="st1" cx="248" cy="248.3" rx="0" ry="0"/>
	<ellipse class="st1" cx="248" cy="248.3" rx="0" ry="0"/>
	<path class="st1" d="M247.9,248.3L247.9,248.3L247.9,248.3z"/>
	<ellipse class="st1" cx="247.9" cy="248.2" rx="0" ry="0"/>
	<path class="st1" d="M247.9,248.3L247.9,248.3L247.9,248.3z"/>
	<ellipse class="st1" cx="247.9" cy="248.2" rx="0" ry="0"/>
	<polygon class="st1" points="247.9,248.2 247.9,248.3 247.9,248.3 	"/>
	<ellipse class="st1" cx="247.8" cy="248.2" rx="0" ry="0"/>
	<path class="st1" d="M247.9,248.2L247.9,248.2L247.9,248.2z"/>
	<ellipse class="st1" cx="247.9" cy="248.2" rx="0" ry="0"/>
	<path class="st1" d="M247.8,248.2L247.8,248.2L247.8,248.2z"/>
	<path class="st1" d="M247.9,248.3L247.9,248.3L247.9,248.3z"/>
	<path class="st1" d="M247.9,248.3L247.9,248.3L247.9,248.3z"/>
	<path class="st2" d="M478.5,257.1c0.3-9.7,0.1-19.5-0.8-29.4c-0.3-3.2-0.7-6.5-1-9.7L248,248.2L478.5,257.1z"/>
	<path class="st1" d="M247.9,248.2L247.9,248.2L247.9,248.2z"/>
	<ellipse class="st1" cx="247.8" cy="248.2" rx="0" ry="0"/>
	<path class="st1" d="M247.9,248.2L247.9,248.2L247.9,248.2z"/>
	<path class="st1" d="M247.9,248.3L247.9,248.3L247.9,248.3z"/>
	<ellipse class="st1" cx="248" cy="248.3" rx="0" ry="0"/>
	<polygon class="st1" points="247.9,248.3 247.9,248.2 247.9,248.2 247.9,248.2 	"/>
	<ellipse class="st1" cx="248" cy="248.3" rx="0" ry="0"/>
	<path class="st1" d="M247.9,248.3L247.9,248.3L247.9,248.3z"/>
	<path class="st1" d="M247.9,248.3L247.9,248.3L247.9,248.3z"/>
	<path class="st1" d="M247.9,248.3L247.9,248.3L247.9,248.3z"/>
	<ellipse class="st1" cx="247.9" cy="248.2" rx="0" ry="0"/>
	<path class="st1" d="M247.9,248.2L247.9,248.2L247.9,248.2z"/>
	<path class="st1" d="M247.9,248.2L247.9,248.2L247.9,248.2z"/>
	<path class="st1" d="M247.9,248.3L247.9,248.3L247.9,248.3z"/>
	<path class="st1" d="M247.9,248.3L247.9,248.3L247.9,248.3z"/>
	<path class="st1" d="M247.9,248.3L247.9,248.3L247.9,248.3z"/>
	<polygon class="st1" points="247.9,248.2 247.9,248.2 247.9,248.3 247.9,248.3 	"/>
	<ellipse class="st1" cx="247.9" cy="248.3" rx="0" ry="0"/>
	<path class="st1" d="M247.9,248.3L247.9,248.3L247.9,248.3z"/>
	<path class="st1" d="M247.9,248.3L247.9,248.3L247.9,248.3z"/>
	<ellipse class="st1" cx="247.9" cy="248.3" rx="0" ry="0"/>
	<path class="st1" d="M247.9,248.3L247.9,248.3L247.9,248.3z"/>
	<ellipse class="st1" cx="248" cy="248.3" rx="0" ry="0"/>
	<path class="st1" d="M247.9,248.3L247.9,248.3L247.9,248.3z"/>
	<polygon class="st1" points="247.9,248.3 247.9,248.3 247.9,248.3 247.9,248.3 	"/>
	<ellipse class="st1" cx="248" cy="248.3" rx="0" ry="0"/>
	<path class="st1" d="M247.9,248.3L247.9,248.3L247.9,248.3z"/>
	<path class="st1" d="M247.9,248.2L247.9,248.2L247.9,248.2z"/>
	<path class="st1" d="M247.9,248.3L247.9,248.3L247.9,248.3z"/>
	<path class="st1" d="M247.9,248.3L247.9,248.3L247.9,248.3z"/>
	<path class="st1" d="M247.9,248.3L247.9,248.3L247.9,248.3z"/>
	<ellipse class="st1" cx="247.9" cy="248.3" rx="0" ry="0"/>
	<path class="st2" d="M462.3,333.5c4.8-12,8.7-24.6,11.3-37.5l-225.7-47.8L462.3,333.5z"/>
	<path class="st3" d="M247.9,248.3L247.9,248.3l145.6,178.9c10.2-8.3,19.5-17.4,28.2-27.2L247.9,248.3L247.9,248.3z"/>
	<path class="st3" d="M247.9,248.3l77.7,217.3c12.5-4.4,24.3-9.9,35.7-16.3L247.9,248.3L247.9,248.3z"/>
	<path class="st2" d="M361.2,449.2c11.4-6.5,22.3-13.8,32.3-22L247.9,248.3L361.2,449.2z"/>
	<path class="st2" d="M247.9,248.3L421.7,400c8.5-9.8,16.4-20.4,23.2-31.5L247.9,248.3L247.9,248.3z"/>
	<path class="st3" d="M247.9,248.3L247.9,248.3L247.9,248.3L247.9,248.3l225.7,47.8c2.7-12.6,4.3-25.6,4.8-38.9L247.9,248.3z"/>
	<path class="st1" d="M247.9,248.3L247.9,248.3L247.9,248.3z"/>
	<path class="st3" d="M247.9,248.3L247.9,248.3l196.9,120.1c6.8-11.1,12.7-22.8,17.5-35L247.9,248.3L247.9,248.3z"/>
	<path class="st2" d="M248.2,248.1l-38.1,227.6c12.7,2.1,25.8,3.2,39.1,3.1L248.2,248.1L248.2,248.1z"/>
	<path class="st2" d="M247.9,247.8l0.9,230.8c12.9-0.1,26-1.3,39-3.6L247.9,247.8L247.9,247.8z"/>
	<path class="st3" d="M248.2,248.1L248.2,248.1L248.2,248.1L248.2,248.1L104,428.2c10.2,8.2,21,15.5,32.5,21.8L248.2,248.1
		L248.2,248.1z"/>
	<path class="st2" d="M248.2,248.1L248.2,248.1L248.2,248.1L248.2,248.1L136.5,449.9c11.4,6.3,23.4,11.7,35.8,16L248.2,248.1
		L248.2,248.1z"/>
	<path class="st3" d="M248.2,248.1L248.2,248.1L248.2,248.1L248.2,248.1l-76,217.9c12.3,4.3,25,7.5,38,9.7L248.2,248.1L248.2,248.1z
		"/>
	<path class="st2" d="M247.9,248.3L247.9,248.3L247.9,248.3L247.9,248.3L247.9,248.3l39.9,227.2c13-2.3,25.7-5.7,37.9-9.9
		L247.9,248.3L247.9,248.3z"/>
	<path class="st3" d="M247.9,248.1L247.9,248.1L247.9,248.1L247.9,248.1L247.9,248.1L247.9,248.1L247.9,248.1L247.9,248.1l0.9,230.7
		c6.5,0,12.9-0.3,19.4-0.9c6.6-0.6,13-1.5,19.5-2.5L247.9,248.1L247.9,248.1z"/>
	<path class="st3" d="M247.9,248.3l228.7-30.2c-1.7-13.2-4.5-26-8.3-38.2L247.9,248.3L247.9,248.3z"/>
	<path class="st2" d="M247.9,248.3l220.3-68.4c-3.9-12.7-8.9-24.8-14.7-36.2L247.9,248.3L247.9,248.3z"/>
	<path class="st3" d="M248,248.4l205.6-104.7c-6-11.9-12.9-23-20.5-33.2L248,248.4L248,248.4z"/>
	<path class="st2" d="M248,248.3l185-137.9c-8-10.6-16.6-20.4-26-29.3L248,248.3L248,248.3z"/>
	<path class="st3" d="M248.1,248.3l159-167.2c-9.6-9.1-19.8-17.3-30.5-24.5L248.1,248.3L248.1,248.3z"/>
	<path class="st2" d="M248.1,248.3L376.6,56.6c-11-7.4-22.5-13.7-34.2-19L248.1,248.3L248.1,248.3z"/>
	<path class="st3" d="M248.2,248.3l94.2-210.6c-12.1-5.4-24.5-9.7-36.9-12.9L248.2,248.3L248.2,248.3z"/>
	<path class="st2" d="M248.2,248.2l57.2-223.5c-12.8-3.3-25.7-5.4-38.5-6.6L248.2,248.2L248.2,248.2z"/>
	<path class="st4" d="M248.2,248.2l18.7-230c-13.3-1-26.3-1-39.1,0.1L248.2,248.2L248.2,248.2z"/>
	<path class="st3" d="M248.4,248.1L227.8,18.3c-13.3,1.2-26.1,3.5-38.5,6.7L248.4,248.1L248.4,248.1z"/>
	<path class="st2" d="M248.4,248L189.3,25c-12.8,3.3-25.2,7.8-36.9,13.2L248.4,248L248.4,248z"/>
	<path class="st3" d="M248.4,248L152.5,38c-12.1,5.5-23.4,11.9-34.2,19.2L248.4,248L248.4,248z"/>
	<path class="st2" d="M248.5,247.8l-130-190.6c-11,7.5-21.1,15.7-30.3,24.7L248.5,247.8L248.5,247.8z"/>
	<path class="st3" d="M248.5,247.8L88.2,82c-9.6,9.2-18.1,19-25.7,29.4L248.5,247.8L248.5,247.8z"/>
	<path class="st2" d="M248.5,247.8l-186-136.5c-7.8,10.7-14.7,21.8-20.4,33.4L248.5,247.8L248.5,247.8z"/>
	<path class="st3" d="M248.5,247.7L42,144.7c-5.9,11.9-10.7,24-14.5,36.4L248.5,247.7L248.5,247.7z"/>
	<path class="st2" d="M248.4,247.7L27.5,181c-3.8,12.7-6.6,25.5-8.2,38.3L248.4,247.7L248.4,247.7z"/>
	<path class="st3" d="M248.4,247.7l-229-28.4c-1.6,13.2-2.2,26.2-1.6,39.1L248.4,247.7L248.4,247.7z"/>
	<path class="st2" d="M248.4,247.7L17.9,258.5c0.6,13.3,2.3,26.2,5.1,38.8L248.4,247.7L248.4,247.7z"/>
	<path class="st3" d="M248.2,247.7L23,297.2c2.9,12.9,6.7,25.5,11.5,37.4L248.2,247.7L248.2,247.7z"/>
	<path class="st2" d="M248.2,247.8L34.5,334.7c5,12.3,11,24,17.7,34.9L248.2,247.8L248.2,247.8z"/>
	<path class="st3" d="M248.2,247.8L52.3,369.6c7,11.3,14.8,21.8,23.3,31.4L248.2,247.8L248.2,247.8z"/>
	<path class="st2" d="M248.2,248L75.6,401.1c8.8,9.9,18.2,18.9,28.3,27L248.2,248L248.2,248z"/>
	<ellipse class="st1" cx="248" cy="248.3" rx="0" ry="0"/>
	<path class="st1" d="M247.9,248.3L247.9,248.3L247.9,248.3z"/>
	<path class="st1" d="M247.9,248.2L247.9,248.2L247.9,248.2z"/>
	<ellipse class="st1" cx="247.9" cy="248.2" rx="0" ry="0"/>
	<polygon class="st1" points="247.9,248.2 247.9,248.2 247.9,248.2 247.9,248.2 	"/>
	<path class="st1" d="M247.9,248.2L247.9,248.2L247.9,248.2z"/>
	<path class="st1" d="M247.9,248.2L247.9,248.2L247.9,248.2z"/>
	<path class="st1" d="M247.9,248.2L247.9,248.2L247.9,248.2z"/>
	<polygon class="st1" points="247.9,248.3 247.9,248.3 247.9,248.2 247.9,248.2 247.9,248.2 	"/>
	<path class="st1" d="M247.9,248.2L247.9,248.2L247.9,248.2z"/>
	<ellipse class="st1" cx="247.8" cy="248.2" rx="0" ry="0"/>
	<path class="st1" d="M247.9,248.2L247.9,248.2L247.9,248.2z"/>
	<path class="st1" d="M247.9,248.2L247.9,248.2L247.9,248.2z"/>
	<ellipse class="st1" cx="247.9" cy="248.2" rx="0" ry="0"/>
	<ellipse class="st1" cx="247.9" cy="248.2" rx="0" ry="0"/>
	<path class="st1" d="M247.9,248.2L247.9,248.2L247.9,248.2z"/>
	<path class="st1" d="M247.9,248.2L247.9,248.2L247.9,248.2z"/>
	<ellipse class="st1" cx="247.9" cy="248.2" rx="0" ry="0"/>
	<ellipse class="st1" cx="247.9" cy="248.2" rx="0" ry="0"/>
	<ellipse class="st1" cx="247.9" cy="248.2" rx="0" ry="0"/>
	<polygon class="st1" points="247.9,248.3 247.9,248.3 247.9,248.2 247.9,248.2 	"/>
	<polygon class="st1" points="247.9,248.2 247.9,248.3 247.9,248.3 	"/>
	<ellipse class="st1" cx="247.8" cy="248.2" rx="0" ry="0"/>
	<ellipse class="st1" cx="247.9" cy="248.2" rx="0" ry="0"/>
	<path class="st1" d="M247.9,248.2L247.9,248.2L247.9,248.2z"/>
	<path class="st1" d="M247.9,248.2L247.9,248.2L247.9,248.2z"/>
	<path class="st1" d="M247.9,248.2L247.9,248.2L247.9,248.2z"/>
	<ellipse class="st1" cx="247.9" cy="248.2" rx="0" ry="0"/>
	<ellipse class="st1" cx="247.9" cy="248.2" rx="0" ry="0"/>
</g>
<path class="st3" d="M248.1,437.9c-104.7,0-189.8-85.2-189.8-189.8S143.5,58.2,248.1,58.2S437.8,143.4,437.9,248
	C438,352.7,352.8,437.9,248.1,437.9z M248.1,65.2c-100.9,0-182.9,82-182.9,182.9S147.3,431,248.1,431S431,348.9,431,248.1
	C430.9,147.2,348.9,65.2,248.1,65.2z"/>
<path class="st3" d="M248.1,103C168,103,103,168,103,248.1s65,145.1,145.1,145.1s145.1-65,145.1-145.1
	C393.1,168,328.2,103,248.1,103z"/>
<path class="st0" d="M248.1,109.1c-76.7,0-138.9,62.2-138.9,138.9s62.2,139,138.9,139S387,324.8,387,248.1S324.9,109.1,248.1,109.1z
	"/>
<path class="st3" d="M337.3,154.7c-50.4-50.4-132.1-50.4-182.6,0s-50.4,132.1,0,182.6c25.2,25.2,83.2-7.7,128.8-53.2
	C329.4,238.5,362.6,180,337.3,154.7z"/>
<g>
	<g class="st5">
		<path class="st6" d="M248,30.2c1.8,0,3.5,0.9,4.7,2.8c1.3,1.8,1.8,4,1.8,6.8c0,2.7-0.7,5-2,6.8s-2.9,2.8-4.7,2.8s-3.5-0.9-4.7-2.8
			c-1.3-1.8-2-4-2-6.8c0-2.7,0.7-5,2-6.8C244.6,31.1,246.2,30.2,248,30.2z M248,32c-1.3,0-2.3,0.7-3.2,2.2s-1.4,3.2-1.4,5.4
			s0.5,4,1.3,5.5s2,2.2,3.2,2.2s2.4-0.7,3.3-2.2c0.9-1.5,1.4-3.2,1.4-5.4s-0.5-4-1.3-5.4C250.4,32.7,249.3,32,248,32z"/>
	</g>
	<g class="st5">
		<path class="st6" d="M312.6,42.5l-2.9-1l1.6-1.4l3.8,1.4l-6.3,17.3l-2-0.7L312.6,42.5z"/>
		<path class="st6" d="M330.9,49.2l-5.5-2.1l-2.5,3.2c0.3,0.1,0.7,0.1,1,0.2c1.7,0.6,2.9,1.7,3.6,3.2s0.7,3.2,0.1,5
			c-0.7,1.7-1.8,3-3.5,3.8c-1.6,0.8-3.3,0.8-5.2,0.1c-2.3-0.8-3.7-2.5-4.2-5.1l2-0.6c0.5,2,1.4,3.2,3,3.8c1.3,0.5,2.4,0.3,3.6-0.1
			c1.2-0.6,2-1.5,2.4-2.8c0.5-1.2,0.3-2.3-0.1-3.5c-0.6-1.2-1.4-2-2.5-2.4c-0.9-0.3-2.2-0.3-3.8,0l5.5-7.4l6.9,2.5L330.9,49.2z"/>
	</g>
	<g class="st5">
		<path class="st6" d="M177.7,52.5l-0.6-1.7c2.3-0.8,3-2.3,2.3-4.3c-0.3-0.8-0.8-1.4-1.6-1.7s-1.6-0.3-2.4-0.1
			c-0.9,0.3-1.5,0.8-1.8,1.4c-0.3,0.6-0.3,1.4-0.1,2.5l-1.8,0.7c-0.7-3.2,0.3-5.3,3.1-6.3c1.4-0.6,2.8-0.6,3.9,0
			c1.3,0.6,2.1,1.5,2.7,2.8c0.7,1.7,0.3,3.2-0.8,4.6c2,0.1,3.2,1.3,4,3.3c0.6,1.5,0.5,2.9-0.1,4.3c-0.7,1.4-1.7,2.3-3.3,2.9
			c-0.9,0.3-2,0.5-2.9,0.3c-1-0.1-1.7-0.5-2.3-0.9c-0.5-0.5-0.9-0.8-1-1.2c-0.2-0.3-0.5-0.7-0.6-1.2l1.8-0.7c1,1.8,2.5,2.4,4.4,1.7
			c0.9-0.3,1.6-1,2.1-1.8c0.5-0.9,0.5-1.8,0.1-2.8C181.8,52.1,180.2,51.6,177.7,52.5z"/>
	</g>
	<g class="st5">
		<path class="st6" d="M393.8,108.9l5,5.9l-1.5,1.3l-7.7-9.1l10.3,0.1c1.8,0,3.2,0,4.2-0.2c0.9-0.2,1.6-0.5,2.2-0.9
			c0.7-0.6,1.2-1.5,1.3-2.4c0.1-1-0.2-1.8-0.9-2.7c-1.5-1.7-3.2-1.8-5.3-0.3L400,99c0.7-0.5,1.3-0.8,1.7-1c0.5-0.2,1-0.3,1.7-0.5
			c0.7-0.1,1.5,0.1,2.3,0.5c0.9,0.3,1.6,0.9,2.2,1.6c1,1.3,1.5,2.7,1.5,4.2c-0.1,1.5-0.7,2.8-1.8,3.8c-0.8,0.7-1.7,1.2-2.7,1.3
			c-0.9,0.1-2.8,0.2-5.3,0.2h-5.8L393.8,108.9L393.8,108.9z"/>
		<path class="st6" d="M414.8,111l-2-2.3l2.2-0.5l2.7,3.1l-14.2,12l-1.4-1.6L414.8,111z"/>
	</g>
	<g class="st5">
		<path class="st6" d="M203.8,50.5l7.6-1.3l0.3,1.8l-11.8,2l5.4-8.8c1-1.6,1.6-2.8,2-3.7c0.3-0.9,0.5-1.6,0.3-2.3
			c-0.1-0.9-0.7-1.7-1.5-2.3s-1.7-0.8-2.8-0.6c-2.2,0.3-3.2,1.8-3,4.4l-2.1,0.3c0-0.8,0-1.5,0-2c0.1-0.5,0.2-1,0.6-1.7
			c0.3-0.7,0.8-1.3,1.6-1.8c0.8-0.6,1.6-0.9,2.5-1c1.6-0.2,3,0,4.3,0.9c1.3,0.8,2.1,2.1,2.3,3.6c0.1,1,0.1,2.1-0.2,3
			s-1.2,2.5-2.5,4.6L203.8,50.5z"/>
		<path class="st6" d="M220.2,30.5l1.7,0.9l-3.2,6.6c0.3-0.1,0.7-0.3,0.9-0.3c0.3-0.1,0.6-0.1,0.6-0.1c1.6-0.2,3.1,0.1,4.4,1
			c1.4,1,2.2,2.3,2.4,4s-0.1,3.2-1.2,4.7c-1,1.4-2.4,2.3-4.2,2.5c-1.7,0.2-3.3-0.1-4.7-1c-1.4-1-2.3-2.4-2.5-4.2
			c-0.2-1.4,0-2.9,0.8-4.4L220.2,30.5z M220.2,39.3c-1.2,0.2-2.1,0.8-2.9,1.7c-0.7,0.9-0.9,2.1-0.8,3.2c0.2,1.2,0.8,2.1,1.7,2.9
			c0.9,0.7,2.1,0.9,3.2,0.8c1.2-0.2,2.1-0.8,2.8-1.7s0.9-2.1,0.8-3.2c-0.2-1.2-0.8-2.2-1.7-2.9C222.5,39.3,221.4,39.1,220.2,39.3z"
			/>
	</g>
	<g class="st5">
		<path class="st6" d="M139.3,70.2l-0.8-1.6c2.2-1.2,2.8-2.7,1.8-4.5c-0.3-0.8-1-1.3-1.8-1.6c-0.8-0.2-1.6-0.2-2.4,0.2
			c-0.8,0.5-1.4,0.9-1.6,1.6c-0.2,0.6-0.2,1.5,0.1,2.5l-1.8,0.9c-1-3.1-0.2-5.3,2.3-6.7c1.4-0.7,2.7-0.8,3.9-0.5
			c1.3,0.3,2.3,1.2,3,2.5c0.8,1.6,0.8,3.2-0.2,4.7c2-0.1,3.3,0.8,4.4,2.8c0.7,1.4,0.8,2.8,0.3,4.3c-0.5,1.4-1.5,2.5-2.9,3.2
			c-0.9,0.5-1.8,0.7-2.9,0.7c-1,0-1.7-0.2-2.3-0.6c-0.6-0.3-0.9-0.7-1.3-0.9c-0.2-0.2-0.5-0.7-0.7-1.2l1.7-0.9
			c1.3,1.7,2.8,2.2,4.6,1.2c0.9-0.5,1.5-1.2,1.8-2.1s0.2-1.8-0.2-2.8C143.4,69.6,141.6,69.1,139.3,70.2z"/>
		<path class="st6" d="M155.2,53.3L150,56l0.7,4c0.3-0.2,0.6-0.5,0.9-0.6c1.6-0.8,3.2-0.9,4.7-0.5c1.6,0.6,2.8,1.6,3.7,3.3
			c0.8,1.7,1,3.3,0.5,5.1s-1.7,3-3.5,3.9c-2.1,1.2-4.3,0.9-6.6-0.3l0.9-1.8c1.7,1,3.3,1.2,4.8,0.3c1.2-0.6,2-1.5,2.3-2.7
			c0.3-1.3,0.2-2.4-0.3-3.6c-0.6-1.2-1.5-1.8-2.7-2.3c-1.2-0.3-2.3-0.3-3.5,0.3c-0.9,0.5-1.7,1.4-2.5,2.8l-1.6-9.1l6.6-3.3
			L155.2,53.3z"/>
	</g>
	<g class="st5">
		<path class="st6" d="M105.7,84.8l-2.3,2l-0.3-2.2l3.1-2.7l11.9,14.2l-1.6,1.4L105.7,84.8z"/>
		<path class="st6" d="M124.2,88.5l5.9-5l1.3,1.5l-9.1,7.6l0.1-10.3c0-1.8,0-3.2-0.2-4.2c-0.1-0.9-0.5-1.6-0.9-2.2
			c-0.6-0.8-1.5-1.2-2.4-1.3c-1-0.1-1.8,0.2-2.7,0.9c-1.7,1.4-1.8,3.2-0.3,5.3l-1.6,1.4c-0.5-0.7-0.8-1.3-1-1.7
			c-0.2-0.5-0.3-1-0.3-1.7c-0.1-0.7,0.1-1.5,0.5-2.3c0.3-0.8,0.9-1.6,1.6-2.2c1.3-1,2.7-1.5,4.2-1.5c1.5,0.1,2.8,0.7,3.8,1.8
			c0.7,0.8,1.2,1.7,1.3,2.7c0.2,1,0.2,2.8,0.2,5.3L124.2,88.5z"/>
	</g>
	<g class="st5">
		<path class="st6" d="M90.4,122.1l5.1-5.9l1.5,1.3l-7.7,9l-1.5-10.2c-0.2-1.8-0.6-3.2-0.8-4c-0.3-0.9-0.7-1.5-1.3-2
			c-0.7-0.7-1.6-0.9-2.7-0.8c-1,0.1-1.8,0.6-2.5,1.3c-1.5,1.7-1.3,3.5,0.5,5.3l-1.4,1.6c-0.6-0.6-1-1-1.3-1.5
			c-0.2-0.5-0.5-0.9-0.7-1.6s-0.1-1.5,0-2.4c0.2-0.9,0.7-1.7,1.3-2.4c1-1.3,2.3-2,3.9-2.1s2.9,0.2,4,1.3c0.8,0.7,1.4,1.5,1.7,2.4
			c0.3,0.9,0.7,2.7,1,5.2L90.4,122.1z"/>
		<path class="st6" d="M94.4,105.4c-1.7,0.6-3.2,0.2-4.5-0.9c-1.2-0.9-1.7-2.1-1.8-3.5c-0.1-1.4,0.3-2.7,1.3-3.8
			c0.9-1.2,2.1-1.7,3.5-1.8c1.4-0.1,2.7,0.3,3.7,1.3c0.6,0.6,1,1.3,1.4,2c0.2,0.8,0.3,1.6,0.2,2.4c1.8-0.8,3.6-0.5,5.1,0.9
			c1.2,1,1.8,2.3,2,3.7c0.1,1.5-0.3,2.8-1.4,4c-1,1.3-2.3,1.8-3.8,2c-1.5,0.1-2.8-0.3-4-1.3C94.4,109.1,94,107.5,94.4,105.4z
			 M90.8,98.5c-0.6,0.7-0.8,1.5-0.8,2.3c0.1,0.9,0.5,1.6,1.2,2.2s1.5,0.8,2.3,0.8c0.9-0.1,1.6-0.5,2.2-1.2s0.8-1.5,0.8-2.3
			c-0.1-0.9-0.5-1.6-1.2-2.2s-1.5-0.8-2.3-0.8C92.1,97.5,91.4,97.8,90.8,98.5z M97,103.9c-0.7,0.7-0.9,1.6-0.9,2.5
			c0.1,0.9,0.5,1.7,1.2,2.4s1.6,0.9,2.5,0.8s1.7-0.5,2.4-1.3c0.7-0.7,0.9-1.6,0.9-2.5c-0.1-0.9-0.5-1.7-1.3-2.4
			c-0.7-0.7-1.6-0.9-2.5-0.8C98.5,102.8,97.7,103.2,97,103.9z"/>
	</g>
	<g class="st5">
		<path class="st6" d="M67.5,130.6l-5.1,8.8l-1.6-0.9l6.8-11.8l10.2,20.2l-1.7,0.7L67.5,130.6z"/>
	</g>
	<g class="st5">
		<path class="st6" d="M35.1,210.3l-0.7,3l-1.6-1.5l0.9-3.9l18,3.9l-0.5,2.1L35.1,210.3z"/>
		<path class="st6" d="M44.3,200.6c-1.2,1.3-2.7,1.7-4.4,1.4c-1.4-0.3-2.5-1-3.2-2.2s-0.9-2.5-0.6-3.9s1-2.5,2.2-3.2
			c1.2-0.8,2.4-0.9,3.8-0.7c0.8,0.2,1.5,0.6,2.2,1.2c0.6,0.6,1,1.3,1.3,2c1.3-1.5,2.9-2.1,5-1.6c1.5,0.3,2.7,1.2,3.5,2.4
			c0.8,1.3,1,2.7,0.7,4.3s-1.2,2.8-2.4,3.6c-1.3,0.8-2.7,1-4.2,0.7C46.2,203.9,44.9,202.6,44.3,200.6z M37.9,196.3
			c-0.2,0.9,0,1.7,0.5,2.4s1.2,1.3,2,1.4c0.8,0.1,1.6,0,2.4-0.5c0.7-0.5,1.3-1.2,1.4-2c0.2-0.9,0-1.6-0.5-2.4
			c-0.5-0.7-1.2-1.3-2-1.4c-0.8-0.1-1.6,0-2.4,0.5S38.1,195.3,37.9,196.3z M46,198.1c-0.2,0.9-0.1,1.8,0.5,2.7
			c0.6,0.8,1.3,1.4,2.2,1.6c0.9,0.2,1.8,0,2.7-0.5c0.8-0.6,1.4-1.3,1.5-2.3c0.2-0.9,0.1-1.8-0.5-2.7s-1.3-1.4-2.2-1.6
			c-0.9-0.2-1.8,0-2.7,0.5C46.6,196.4,46.2,197.1,46,198.1z"/>
	</g>
	<g class="st5">
		<path class="st6" d="M46.9,249.8l0.5-7.7l2,0.1l-0.8,11.9l-7.4-7.2c-1.3-1.3-2.3-2.2-3.1-2.8c-0.8-0.5-1.5-0.8-2.2-0.8
			c-0.9-0.1-1.8,0.2-2.5,0.9s-1.2,1.5-1.3,2.5c-0.1,2.2,1,3.6,3.6,3.9l-0.1,2.1c-0.8-0.1-1.4-0.2-1.8-0.5c-0.5-0.2-0.9-0.5-1.5-0.9
			c-0.6-0.5-1-1-1.4-2c-0.3-0.9-0.6-1.7-0.5-2.8c0.1-1.6,0.7-3,1.8-4c1.2-1,2.4-1.5,3.9-1.4c1,0.1,2,0.3,2.9,0.9
			c0.8,0.6,2.2,1.7,3.9,3.5L46.9,249.8z"/>
		<path class="st6" d="M47.8,234.1l0.5-7.7l2,0.1l-0.7,11.9l-7.4-7.2c-1.3-1.3-2.3-2.2-3.1-2.8c-0.8-0.5-1.5-0.8-2.2-0.8
			c-0.9-0.1-1.8,0.2-2.5,0.9s-1.2,1.5-1.3,2.5c-0.1,2.2,1,3.6,3.6,3.9l-0.1,2.1c-0.8-0.1-1.4-0.2-1.8-0.5c-0.5-0.2-0.9-0.5-1.5-0.9
			s-1-1-1.4-2c-0.3-0.8-0.6-1.7-0.5-2.8c0.1-1.6,0.7-3,1.8-4c1.2-1,2.4-1.5,3.9-1.4c1,0.1,2,0.3,2.9,0.9c0.8,0.6,2.2,1.7,3.9,3.5
			L47.8,234.1z"/>
	</g>
	<g class="st5">
		<path class="st6" d="M50.3,271.2L50,273l-7.2-1.4c0.3,0.5,0.7,0.9,0.9,1.4c0.7,1.5,0.7,3,0.1,4.6c-0.6,1.5-1.6,2.7-3.2,3.3
			c-1.6,0.7-3.2,0.8-4.8,0.1c-1.6-0.6-2.8-1.7-3.6-3.3c-0.7-1.6-0.8-3.2-0.2-4.8c0.6-1.6,1.7-2.8,3.2-3.6c1.3-0.6,2.8-0.7,4.4-0.3
			L50.3,271.2z M34,277c0.5,1,1.3,1.8,2.4,2.3c1.2,0.5,2.2,0.3,3.3-0.1c1-0.5,1.8-1.3,2.3-2.4c0.5-1.2,0.3-2.2-0.1-3.3
			c-0.5-1.2-1.3-1.8-2.4-2.3c-1.2-0.5-2.2-0.3-3.3,0.1c-1,0.5-1.8,1.3-2.3,2.4C33.5,274.8,33.5,275.9,34,277z"/>
	</g>
	<g class="st5">
		<path class="st6" d="M57.7,182.1l2.7-7.3l1.8,0.7l-4,11.2l-5.1-9c-0.9-1.6-1.6-2.8-2.2-3.5c-0.6-0.7-1.3-1.2-1.8-1.4
			c-0.9-0.3-1.8-0.2-2.8,0.1c-0.9,0.5-1.5,1.2-1.8,2.1c-0.8,2.1,0,3.7,2.3,4.7l-0.7,2c-0.7-0.3-1.3-0.7-1.7-0.9
			c-0.3-0.3-0.8-0.7-1.3-1.3s-0.7-1.4-0.8-2.3c-0.1-0.9,0-1.8,0.3-2.8c0.6-1.5,1.5-2.7,2.9-3.3c1.4-0.7,2.8-0.8,4.2-0.2
			c1,0.3,1.8,0.9,2.5,1.7s1.6,2.3,2.9,4.5L57.7,182.1z"/>
		<path class="st6" d="M65.5,167.3l-1.6,1l-4.2-6c0,0.6-0.1,1.2-0.3,1.6c-0.6,1.6-1.6,2.7-3.1,3.3c-1.5,0.7-3.1,0.8-4.6,0.2
			c-1.6-0.6-2.8-1.7-3.6-3.2s-0.8-3.2-0.2-4.8s1.7-2.9,3.2-3.6c1.5-0.7,3.2-0.8,4.8-0.2c1.3,0.5,2.4,1.4,3.5,2.9L65.5,167.3z
			 M49.8,160c-0.5,1.2-0.3,2.2,0.1,3.3c0.5,1,1.3,1.8,2.4,2.2c1.2,0.5,2.2,0.3,3.3-0.1c1.2-0.5,1.8-1.4,2.2-2.4
			c0.3-1,0.3-2.2-0.1-3.3c-0.5-1-1.4-1.8-2.4-2.2c-1.2-0.3-2.2-0.3-3.3,0.1C50.9,158.1,50.1,159,49.8,160z"/>
	</g>
	<g class="st5">
		<path class="st6" d="M51,314.4l-1.7,0.5c-0.7-2.3-2.1-3.2-4-2.7c-0.8,0.2-1.5,0.7-1.8,1.5c-0.5,0.7-0.5,1.5-0.2,2.4
			c0.2,0.9,0.7,1.5,1.3,1.8s1.4,0.5,2.4,0.3l0.6,2c-3.2,0.5-5.3-0.7-6.1-3.6c-0.5-1.4-0.3-2.8,0.3-3.9c0.6-1.2,1.6-2.1,3-2.4
			c1.7-0.6,3.3-0.1,4.6,1.2c0.2-2,1.5-3.2,3.6-3.8c1.5-0.5,2.9-0.3,4.3,0.5c1.3,0.8,2.2,2,2.7,3.5c0.3,1,0.3,2,0.1,3
			c-0.2,0.9-0.6,1.7-1,2.2c-0.5,0.5-0.9,0.8-1.2,1s-0.7,0.3-1.3,0.6l-0.6-2c2-0.9,2.7-2.3,2.1-4.3c-0.2-0.9-0.9-1.7-1.7-2.2
			s-1.8-0.6-2.8-0.2C51,310.4,50.3,312,51,314.4z"/>
		<path class="st6" d="M39.8,303.7l0.8,2.9l-2.2-0.5l-1.2-3.9L55,297l0.6,2L39.8,303.7z"/>
	</g>
	<g class="st5">
		<path class="st6" d="M60.5,352.3l1.3,2.8l-2.2-0.1l-1.7-3.7l16.7-8l0.9,1.8L60.5,352.3z"/>
		<path class="st6" d="M63.1,330.7l-0.9-2.1l1.7-0.8l0.9,2.1l2.8-1.3l0.9,1.8l-2.8,1.3l4,8.5L50,336.9L63.1,330.7z M64.1,332.5
			l-7.5,3.6l10,1.7L64.1,332.5z"/>
	</g>
	<g class="st5">
		<path class="st6" d="M92.5,375.9l-4.8-6l1.5-1.2l7.5,9.3l-10.3-0.3c-1.8-0.1-3.2-0.1-4.2,0.1c-0.9,0.1-1.6,0.5-2.2,0.8
			c-0.8,0.6-1.2,1.4-1.3,2.4c-0.1,1,0.2,2,0.8,2.8c1.4,1.7,3.1,2,5.3,0.5l1.3,1.6c-0.7,0.5-1.3,0.8-1.7,0.9c-0.5,0.2-1,0.3-1.7,0.3
			c-0.7,0.1-1.5-0.1-2.3-0.5c-0.8-0.3-1.6-0.9-2.2-1.7c-1-1.3-1.5-2.7-1.4-4.2s0.8-2.8,2-3.7c0.8-0.7,1.7-1,2.8-1.3
			c1-0.1,2.8-0.2,5.3-0.1L92.5,375.9z"/>
		<path class="st6" d="M68.1,372.4c-1.2-1.5-1.5-3.2-0.8-5.4c0.6-2.1,2-4,4.2-5.8c2.1-1.7,4.3-2.5,6.5-2.8c2.2-0.1,3.9,0.5,5.1,2
			s1.4,3.2,0.8,5.4c-0.6,2.2-2,4-4.2,5.8c-2.1,1.6-4.3,2.5-6.5,2.8C70.9,374.6,69.3,373.9,68.1,372.4z M69.6,371.2
			c0.8,1,2.1,1.4,3.7,1.2c1.7-0.2,3.3-1,5.1-2.3c1.7-1.4,2.9-2.9,3.5-4.4c0.6-1.6,0.5-2.9-0.3-3.9s-2.1-1.4-3.8-1.2
			c-1.7,0.2-3.3,1-5.1,2.3c-1.7,1.4-2.9,2.9-3.5,4.4C68.6,368.9,68.7,370.3,69.6,371.2z"/>
	</g>
	<g class="st5">
		<path class="st6" d="M139,425.6l-1,1.5c-2-1.4-3.6-1.2-4.8,0.6c-0.5,0.7-0.7,1.5-0.5,2.3c0.1,0.8,0.6,1.5,1.3,2
			c0.8,0.6,1.5,0.8,2.2,0.7c0.7-0.1,1.4-0.6,2.1-1.3l1.7,1.2c-2.2,2.4-4.5,2.8-6.9,1.2c-1.3-0.8-2-2-2.3-3.2c-0.3-1.3,0-2.5,0.8-3.8
			c1-1.5,2.4-2.2,4.3-2.1c-1-1.6-0.9-3.3,0.3-5.2c0.9-1.3,2.1-2.1,3.6-2.3c1.5-0.2,2.9,0.1,4.3,1c0.8,0.6,1.5,1.3,2,2.2
			c0.5,0.9,0.7,1.6,0.6,2.3c-0.1,0.7-0.1,1.2-0.2,1.5c-0.1,0.3-0.3,0.7-0.6,1.2l-1.6-1.2c0.9-2,0.6-3.5-1.2-4.6
			c-0.8-0.6-1.7-0.8-2.8-0.6c-0.9,0.2-1.7,0.7-2.3,1.6C136.3,422.4,136.8,424.2,139,425.6z"/>
		<path class="st6" d="M125.9,416.8l-1,1.5c-2-1.4-3.6-1.2-4.8,0.6c-0.5,0.7-0.7,1.5-0.5,2.3c0.1,0.8,0.6,1.5,1.3,2
			c0.8,0.6,1.5,0.8,2.2,0.7c0.7-0.1,1.4-0.6,2.1-1.3l1.6,1.2c-2.2,2.4-4.5,2.8-6.9,1.2c-1.3-0.8-2-2-2.3-3.2c-0.3-1.3,0-2.5,0.8-3.8
			c1-1.5,2.4-2.2,4.3-2.1c-1-1.6-0.9-3.3,0.3-5.2c0.9-1.3,2.1-2.1,3.6-2.3c1.5-0.2,2.9,0.1,4.3,1c0.8,0.6,1.5,1.3,2,2.2
			c0.5,0.9,0.7,1.7,0.6,2.3c-0.1,0.6-0.1,1.2-0.2,1.5c-0.1,0.3-0.3,0.7-0.6,1.2l-1.6-1.2c0.9-2,0.6-3.5-1.2-4.6
			c-0.8-0.6-1.7-0.8-2.8-0.6c-0.9,0.2-1.7,0.7-2.3,1.6C123.4,413.7,123.8,415.3,125.9,416.8z"/>
	</g>
	<g class="st5">
		<path class="st6" d="M166.9,449.3l2.8,1.3l-1.7,1.3l-3.7-1.7l7.7-16.7l1.8,0.9L166.9,449.3z"/>
		<path class="st6" d="M151.8,445.1l-0.9-1.7l6.3-3.6c-0.3,0-0.7-0.1-1-0.2s-0.6-0.2-0.6-0.2c-1.5-0.7-2.5-1.8-3.1-3.3
			c-0.6-1.6-0.5-3.1,0.2-4.7s2-2.7,3.6-3.2c1.6-0.6,3.2-0.6,4.8,0.2c1.6,0.7,2.8,2,3.3,3.6c0.6,1.6,0.6,3.2-0.2,4.8
			c-0.6,1.3-1.6,2.3-3.1,3.1L151.8,445.1z M156.7,437.8c1,0.5,2.2,0.6,3.3,0.1s2-1.2,2.4-2.3c0.5-1,0.6-2.2,0.1-3.3
			c-0.5-1.2-1.2-2-2.3-2.4c-1-0.5-2.2-0.6-3.3-0.1c-1.2,0.5-2,1.2-2.4,2.3c-0.5,1-0.6,2.2-0.1,3.3
			C154.9,436.4,155.6,437.2,156.7,437.8z"/>
	</g>
	<g class="st5">
		<path class="st7" d="M98.9,404.1l2.1,2.2l-2.1,0.6l-2.8-2.9l13.4-12.7l1.4,1.5L98.9,404.1z"/>
	</g>
	<g class="st5">
		<path class="st6" d="M207.6,445.3l-7.5-2l0.5-1.8l11.5,3l-8.4,5.8c-1.5,1-2.7,1.8-3.2,2.5c-0.7,0.7-1,1.3-1.3,2
			c-0.2,0.9-0.1,1.8,0.5,2.8c0.5,0.8,1.3,1.4,2.3,1.7c2.2,0.6,3.7-0.3,4.5-2.8l2,0.6c-0.2,0.8-0.6,1.4-0.8,1.7
			c-0.2,0.5-0.7,0.8-1.2,1.4c-0.6,0.5-1.3,0.8-2.2,1s-1.8,0.1-2.8-0.1c-1.6-0.5-2.8-1.3-3.6-2.5c-0.8-1.3-1-2.7-0.7-4.2
			c0.2-1,0.8-1.8,1.5-2.7c0.7-0.7,2.1-1.8,4.2-3.2L207.6,445.3z"/>
		<path class="st6" d="M185.8,442.6l-2.2-0.6l0.5-1.8l2.2,0.6l0.8-2.9l2,0.6l-0.8,2.9l9.1,2.4l-15.3,13L185.8,442.6z M187.9,443.1
			l-2.1,8.1l7.7-6.6L187.9,443.1z"/>
	</g>
	<g class="st5">
		<path class="st6" d="M225.7,463.9h5.9l1.3-3.9c-0.3,0.1-0.7,0.1-1,0.1c-1.8,0-3.2-0.6-4.4-1.8c-1.2-1.3-1.7-2.8-1.7-4.6
			c0-1.8,0.7-3.5,2-4.7c1.3-1.3,2.9-1.8,4.8-1.8c2.4,0,4.3,1.2,5.7,3.3l-1.6,1.2c-1-1.7-2.4-2.5-4.2-2.7c-1.3,0-2.4,0.5-3.2,1.4
			c-0.9,0.9-1.4,2.1-1.4,3.3c0,1.3,0.5,2.3,1.3,3.2c0.9,0.9,2,1.4,3.2,1.4c1,0,2.2-0.5,3.6-1.3l-2.8,8.8h-7.4L225.7,463.9z"/>
	</g>
	<g class="st5">
		<path class="st6" d="M275.7,461.9l3-0.3l-0.9,2l-4,0.3l-1.7-18.3l2.1-0.2L275.7,461.9z"/>
		<path class="st6" d="M261.3,465.5c-1.8,0.2-3.6-0.6-5-2.3c-1.4-1.7-2.3-3.9-2.5-6.6s0.1-5,1.3-6.9c1-2,2.5-3,4.4-3.2
			c1.8-0.2,3.5,0.6,5,2.3c1.4,1.7,2.3,3.9,2.5,6.6s-0.1,5-1.3,6.9C264.6,464.2,263.1,465.3,261.3,465.5z M261.2,463.6
			c1.3-0.1,2.3-0.9,3-2.5c0.7-1.5,1-3.3,0.8-5.5s-0.8-4-1.8-5.3c-1-1.4-2.2-2-3.5-1.8c-1.3,0.1-2.3,0.9-3.1,2.5
			c-0.7,1.5-1,3.3-0.8,5.5s0.8,3.9,1.8,5.3C258.7,463.1,259.9,463.8,261.2,463.6z"/>
	</g>
	<g class="st5">
		<path class="st6" d="M307.6,440.8l-7.5,2l-0.5-1.8l11.5-3l-4.5,9.2c-0.8,1.6-1.4,2.9-1.6,3.8s-0.2,1.6-0.1,2.3
			c0.2,0.9,0.8,1.6,1.7,2.2c0.9,0.5,1.8,0.6,2.8,0.3c2.2-0.6,3-2.1,2.7-4.6l2-0.6c0.1,0.8,0.2,1.5,0.1,2c0,0.5-0.1,1-0.3,1.7
			c-0.2,0.7-0.7,1.3-1.4,2c-0.7,0.7-1.5,1-2.4,1.3c-1.6,0.5-3,0.2-4.4-0.5s-2.2-1.8-2.5-3.3c-0.2-1-0.2-2.1,0-3
			c0.2-1,0.9-2.7,2.1-4.8L307.6,440.8z"/>
		<path class="st6" d="M292.7,451.8l0.5,1.7c-2.3,0.6-3.2,2-2.8,3.9c0.2,0.8,0.7,1.5,1.4,2c0.7,0.5,1.5,0.6,2.4,0.3
			c0.9-0.2,1.6-0.7,2-1.2c0.3-0.6,0.5-1.4,0.3-2.4l2-0.5c0.3,3.2-0.9,5.2-3.7,6c-1.5,0.3-2.8,0.2-3.9-0.5c-1.2-0.7-2-1.7-2.3-3.1
			c-0.5-1.7,0-3.3,1.3-4.6c-1.8-0.3-3.1-1.6-3.7-3.7c-0.3-1.5-0.2-2.9,0.6-4.2s2-2.1,3.6-2.5c1-0.2,2-0.2,3,0
			c0.9,0.2,1.7,0.6,2.2,1.2c0.5,0.5,0.8,0.9,0.9,1.3c0.2,0.3,0.3,0.7,0.5,1.3l-2,0.5c-0.8-2-2.2-2.7-4.3-2.2c-1,0.2-1.7,0.8-2.2,1.6
			c-0.5,0.8-0.6,1.8-0.3,2.8C288.6,451.6,290.1,452.3,292.7,451.8z"/>
	</g>
	<g class="st5">
		<path class="st6" d="M337.6,437.2c1.7,0,3.1,0.8,3.9,2.4c0.7,1.3,0.9,2.5,0.5,3.9c-0.3,1.4-1.3,2.4-2.5,3.1
			c-1.3,0.7-2.5,0.9-3.9,0.6s-2.3-1.2-3.1-2.4c-0.5-0.7-0.6-1.5-0.6-2.3s0.2-1.6,0.6-2.3c-2,0.1-3.5-0.7-4.5-2.5
			c-0.8-1.4-0.9-2.8-0.6-4.2c0.5-1.4,1.3-2.5,2.8-3.3c1.4-0.8,2.8-1,4.3-0.6c1.4,0.3,2.5,1.3,3.3,2.5
			C338.8,433.8,338.7,435.5,337.6,437.2z M334.7,437.8c0.8-0.5,1.4-1.2,1.7-2.1c0.2-0.9,0.1-1.8-0.3-2.7c-0.5-0.8-1.2-1.4-2.1-1.6
			s-1.8-0.1-2.8,0.3c-0.8,0.5-1.4,1.2-1.7,2.1c-0.2,0.9-0.1,1.8,0.3,2.7c0.5,0.8,1.2,1.4,2.2,1.6C333,438.5,333.8,438.4,334.7,437.8
			z M338.7,445.1c0.8-0.5,1.3-1,1.5-2c0.2-0.8,0.1-1.6-0.3-2.4s-1-1.3-2-1.5c-0.8-0.2-1.6-0.1-2.4,0.3s-1.3,1-1.5,2
			s-0.1,1.6,0.3,2.4s1,1.3,2,1.5C337.1,445.5,337.9,445.4,338.7,445.1z"/>
	</g>
	<g class="st5">
		<path class="st6" d="M402.8,399.6l2.2-2.1l0.6,2.1l-2.9,2.8L390,389l1.5-1.4L402.8,399.6z"/>
		<path class="st6" d="M394.2,407.8l2.2-2.1l0.6,2.1l-2.9,2.8l-12.7-13.4l1.5-1.4L394.2,407.8z"/>
	</g>
	<g class="st5">
		<path class="st6" d="M421.7,365.8l1.4,1.2c-1.6,1.8-1.5,3.5,0.1,4.8c0.7,0.6,1.4,0.8,2.3,0.7c0.8-0.1,1.5-0.5,2.1-1.2
			s0.9-1.4,0.9-2.1s-0.3-1.4-1.2-2.2l1.3-1.5c2.2,2.4,2.3,4.8,0.5,7c-0.9,1.2-2.1,1.8-3.5,2s-2.5-0.2-3.7-1.2
			c-1.4-1.2-2-2.7-1.6-4.4c-1.7,0.8-3.5,0.6-5.2-0.9c-1.2-1-1.8-2.3-2-3.8c-0.1-1.5,0.3-2.9,1.5-4.2c0.7-0.8,1.5-1.4,2.4-1.7
			c0.9-0.3,1.7-0.5,2.4-0.3c0.7,0.1,1.2,0.2,1.5,0.5c0.3,0.1,0.7,0.3,1.2,0.7l-1.3,1.5c-1.8-1.2-3.3-0.9-4.7,0.7
			c-0.7,0.8-0.9,1.6-0.8,2.7c0.1,1,0.6,1.8,1.3,2.5C418.3,368,420.1,367.7,421.7,365.8z"/>
		<path class="st6" d="M418,386l-1.8,0.5l-1.8-7c-0.1,0.3-0.3,0.7-0.5,0.9c-0.2,0.3-0.3,0.5-0.3,0.6c-1,1.3-2.4,2-4,2.1
			s-3.1-0.3-4.5-1.5s-2.1-2.5-2.2-4.3s0.3-3.2,1.5-4.6s2.5-2.1,4.3-2.3c1.7-0.1,3.2,0.3,4.6,1.5c1,0.9,1.8,2.2,2.2,3.8L418,386z
			 M412.3,379.4c0.8-0.9,1.2-2,1-3.2c-0.1-1.2-0.6-2.2-1.5-3s-2-1.2-3.2-1c-1.2,0.1-2.2,0.6-3,1.5s-1,2-0.9,3.1s0.6,2.2,1.5,3
			s2,1.2,3.1,1C410.5,380.8,411.5,380.3,412.3,379.4z"/>
	</g>
	<g class="st5">
		<path class="st6" d="M371.7,416l1,1.5c-2,1.4-2.4,2.9-1.3,4.7c0.5,0.7,1.2,1.2,2,1.3c0.8,0.1,1.6,0,2.3-0.5
			c0.8-0.6,1.3-1.2,1.4-1.8c0.1-0.7,0-1.5-0.5-2.4l1.6-1.2c1.4,2.9,0.9,5.2-1.5,6.9c-1.3,0.8-2.5,1.2-3.8,0.9
			c-1.4-0.2-2.4-0.9-3.2-2.1c-1-1.5-1.2-3.1-0.3-4.7c-2,0.3-3.5-0.5-4.7-2.2c-0.9-1.3-1.2-2.7-0.9-4.2c0.3-1.5,1.2-2.7,2.5-3.6
			c0.8-0.6,1.7-0.9,2.8-1c1-0.1,1.8,0,2.4,0.3s1,0.6,1.4,0.8c0.3,0.2,0.6,0.6,0.9,1l-1.6,1.2c-1.5-1.6-3-1.7-4.7-0.6
			c-0.8,0.6-1.4,1.4-1.5,2.3c-0.2,0.9,0,1.8,0.6,2.8C367.8,417.2,369.5,417.5,371.7,416z"/>
		<path class="st6" d="M363.8,433.5c-1.5,1-3.3,1.3-5.4,0.5s-3.8-2.3-5.4-4.5c-1.5-2.2-2.3-4.5-2.3-6.7s0.8-3.9,2.3-5
			c1.5-1,3.3-1.2,5.4-0.3c2.1,0.8,3.9,2.3,5.4,4.5s2.3,4.4,2.3,6.7C366.1,430.9,365.3,432.5,363.8,433.5z M362.7,432
			c1-0.7,1.5-2,1.4-3.7s-0.8-3.5-2-5.2c-1.3-1.8-2.7-3.1-4.2-3.8c-1.5-0.7-2.9-0.7-3.9,0s-1.6,2-1.5,3.7s0.8,3.5,2,5.2
			c1.3,1.8,2.7,3,4.2,3.7C360.3,432.7,361.6,432.7,362.7,432z"/>
	</g>
	<g class="st5">
		<path class="st6" d="M442.9,297.5l-2.5,7.3l-1.8-0.6l3.8-11.3l5.2,8.9c0.9,1.6,1.7,2.8,2.3,3.5c0.6,0.7,1.3,1.2,1.8,1.4
			c0.9,0.3,1.8,0.2,2.8-0.2c0.9-0.5,1.5-1.2,1.8-2.2c0.7-2.1-0.1-3.7-2.4-4.7l0.7-2c0.7,0.3,1.3,0.7,1.7,0.9
			c0.3,0.3,0.8,0.7,1.3,1.3c0.5,0.6,0.7,1.3,0.8,2.2c0.1,0.9,0,1.8-0.2,2.8c-0.6,1.5-1.5,2.7-2.8,3.3c-1.3,0.7-2.8,0.8-4.2,0.3
			c-1-0.3-1.8-0.9-2.5-1.6c-0.7-0.8-1.6-2.2-2.9-4.4L442.9,297.5z"/>
		<path class="st6" d="M449.7,322.6l3.2-9.6l1.8,0.6l-4.4,12.9l-13.8-17.8l1.5-1.2L449.7,322.6z"/>
	</g>
	<g class="st5">
		<path class="st6" d="M465.4,277.3l-1.3,1.5l-5.5-4.7c0.1,0.3,0.1,0.7,0.1,1s0,0.6,0,0.7c-0.1,1.6-0.8,3-2.1,4
			c-1.3,1-2.8,1.5-4.5,1.4s-3.1-0.9-4.3-2.2c-1.2-1.3-1.6-2.9-1.5-4.6s0.9-3.2,2.2-4.4c1.3-1.2,2.9-1.6,4.6-1.5
			c1.4,0.1,2.8,0.7,4,1.8L465.4,277.3z M457,275.1c0.1-1.2-0.2-2.3-1-3.2c-0.8-0.9-1.7-1.4-3-1.5c-1.2-0.1-2.3,0.2-3.2,1
			s-1.4,1.7-1.5,3c-0.1,1.2,0.2,2.2,1,3.1s1.7,1.4,3,1.5s2.3-0.2,3.2-0.9C456.4,277.3,456.9,276.3,457,275.1z"/>
	</g>
	<g class="st5">
		<path class="st6" d="M445,337.9l1.4-2.7l1.2,1.8l-1.8,3.6l-16.4-8.5l0.9-1.8L445,337.9z"/>
		<path class="st6" d="M432,346l1.6,0.8c-1.2,2.2-0.8,3.7,1.2,4.7c0.8,0.3,1.6,0.5,2.4,0.2c0.8-0.2,1.4-0.8,1.8-1.5
			c0.5-0.8,0.6-1.6,0.3-2.2c-0.2-0.7-0.7-1.3-1.6-2l0.9-1.8c2.7,2,3.3,4.2,2,6.8c-0.7,1.3-1.7,2.2-3,2.7s-2.5,0.3-3.8-0.3
			c-1.6-0.8-2.5-2.2-2.5-3.9c-1.5,1.2-3.2,1.3-5.2,0.2c-1.4-0.7-2.3-1.8-2.8-3.2c-0.5-1.4-0.2-2.9,0.5-4.4c0.5-0.9,1.2-1.6,2-2.2
			s1.6-0.8,2.3-0.8c0.7,0,1.2,0,1.5,0.1s0.8,0.2,1.3,0.5l-0.9,1.7c-2.1-0.7-3.5-0.1-4.5,1.7c-0.5,0.9-0.6,1.8-0.2,2.8
			c0.3,0.9,0.9,1.6,1.8,2.2C429.1,349,430.7,348.4,432,346z"/>
	</g>
	<g class="st5">
		<path class="st6" d="M431.4,164.4l2.9,7.2l-1.7,0.7l-4.5-11.1l9.7,3.3c1.7,0.6,3.1,0.9,4,1.2c0.9,0.1,1.7,0.1,2.3-0.2
			c0.9-0.3,1.5-1,2-2c0.3-0.9,0.3-1.8,0-2.9c-0.8-2.1-2.4-2.8-4.8-2l-0.8-2c0.8-0.2,1.4-0.3,2-0.5c0.5,0,1,0,1.7,0.1
			s1.4,0.6,2.1,1.2s1.3,1.4,1.6,2.3c0.6,1.5,0.7,3,0.1,4.4s-1.5,2.4-3,3c-0.9,0.3-2,0.6-3,0.3c-1-0.1-2.7-0.6-5.1-1.4L431.4,164.4z"
			/>
		<path class="st6" d="M453.7,180.6l-2.2-5.4l-4.2,0.3c0.2,0.3,0.3,0.7,0.5,0.9c0.7,1.6,0.7,3.2,0,4.8c-0.7,1.5-1.8,2.7-3.6,3.3
			c-1.7,0.7-3.5,0.7-5.1,0s-2.9-2-3.6-3.8c-0.9-2.2-0.6-4.4,0.9-6.5l1.7,1c-1.2,1.6-1.5,3.2-0.8,4.8c0.5,1.2,1.3,2.1,2.5,2.5
			c1.2,0.5,2.4,0.5,3.7,0c1.2-0.5,2-1.3,2.5-2.4c0.5-1.2,0.5-2.3,0-3.5c-0.3-0.9-1.3-1.8-2.5-2.8l9.2-0.8l2.8,6.8L453.7,180.6z"/>
	</g>
	<g class="st5">
		<path class="st6" d="M457.5,194.4l-0.7-3l2.1,0.6l0.9,3.9l-18,4.3l-0.5-2.1L457.5,194.4z"/>
		<path class="st6" d="M461.6,211.8l-2.3-9.8l1.8-0.5l3.1,13.3l-21.2-7.7l0.7-1.8L461.6,211.8z"/>
	</g>
	<g class="st5">
		<path class="st6" d="M419.8,140.9l3.9,6.7l-1.6,0.9l-6.1-10.3l10.2,1.7c1.8,0.3,3.2,0.5,4.2,0.5c0.9,0,1.7-0.2,2.3-0.6
			c0.8-0.5,1.4-1.3,1.6-2.2s0.1-2-0.5-2.8c-1.2-2-2.9-2.3-5.2-1.3l-1-1.7c0.7-0.3,1.4-0.6,1.8-0.7c0.5-0.1,1-0.1,1.7-0.1
			s1.5,0.3,2.3,0.8s1.4,1.2,2,2c0.8,1.4,1,2.9,0.8,4.4c-0.3,1.5-1.2,2.7-2.4,3.5c-0.9,0.6-1.8,0.8-2.9,0.8s-2.8-0.2-5.2-0.7
			L419.8,140.9z"/>
	</g>
	<g class="st5">
		<path class="st6" d="M379.7,93.6l1.6,1.6l-1.3,1.4l-1.6-1.6l-2.1,2.2l-1.5-1.4l2.1-2.2l-6.8-6.6l19.7-3.9L379.7,93.6z M378.2,92.1
			l5.8-6l-9.9,2L378.2,92.1z"/>
	</g>
	<g class="st5">
		<path class="st6" d="M455.4,230.9l1.8-0.1c0.1,2.4,1.2,3.6,3.3,3.6c0.9,0,1.6-0.3,2.2-0.9c0.6-0.6,0.8-1.4,0.8-2.2
			c0-0.9-0.3-1.7-0.8-2.2s-1.3-0.8-2.3-0.9l-0.1-2.1c3.2,0.3,5,2,5.1,5c0,1.5-0.3,2.8-1.3,3.8c-0.9,1-2.1,1.6-3.5,1.6
			c-1.8,0.1-3.2-0.7-4.2-2.2c-0.7,1.7-2.2,2.8-4.4,2.8c-1.6,0.1-2.9-0.5-3.9-1.5s-1.6-2.4-1.7-4c0-1,0.1-2,0.6-2.9s0.9-1.5,1.5-1.8
			s1-0.6,1.4-0.7s0.8-0.2,1.4-0.2l0.1,2c-2.1,0.3-3.1,1.6-3,3.7c0,1,0.5,1.8,1.2,2.5s1.6,1,2.7,0.9
			C454.4,234.9,455.5,233.5,455.4,230.9z"/>
		<path class="st6" d="M452.3,251.3l0.1,2.3l-1.8,0.1l-0.1-2.3l-3,0.1l-0.1-2.1l3-0.1l-0.3-9.5l16.8,10.8L452.3,251.3z M452.2,249.2
			l8.3-0.3l-8.5-5.5L452.2,249.2z"/>
	</g>
	<g class="st5">
		<path class="st6" d="M345.9,56.5l-2.8-1.4l1.8-1.3l3.6,1.8l-8.2,16.6l-1.8-0.9L345.9,56.5z"/>
		<path class="st6" d="M349.8,77.4l-0.9-1.7l6.5-3.5c-0.6-0.1-1.2-0.2-1.6-0.5c-1.5-0.7-2.5-1.8-3-3.5c-0.5-1.6-0.3-3.1,0.3-4.6
			c0.8-1.5,2-2.7,3.7-3.1c1.7-0.5,3.2-0.5,4.8,0.3c1.6,0.8,2.7,2,3.2,3.7c0.6,1.7,0.5,3.2-0.3,4.8c-0.6,1.3-1.7,2.3-3.2,3.1
			L349.8,77.4z M358.7,62.5c-1-0.6-2.2-0.6-3.3-0.2s-2,1.2-2.5,2.2s-0.6,2.2-0.2,3.3c0.3,1.2,1.2,2,2.2,2.5c1,0.6,2.2,0.6,3.3,0.2
			s2-1.2,2.5-2.2c0.6-1,0.6-2.2,0.2-3.3C360.5,63.9,359.8,63.1,358.7,62.5z"/>
	</g>
	<g>
		<path class="st6" d="M274.7,41.3l0.3-1.7c2.4,0.5,3.8-0.3,4.2-2.4c0.1-0.8,0-1.6-0.5-2.3s-1.2-1.2-2-1.3c-0.9-0.1-1.7-0.1-2.3,0.2
			s-1,1-1.4,2.1l-2-0.3c1-3.1,3-4.4,5.9-3.8c1.5,0.2,2.7,0.9,3.5,2.1c0.8,1,1,2.3,0.8,3.8c-0.3,1.8-1.4,3-3,3.6
			c1.6,1.2,2.2,2.8,1.7,5c-0.2,1.5-1,2.8-2.3,3.6s-2.7,1-4.3,0.8c-1-0.2-2-0.6-2.7-1.3c-0.8-0.6-1.3-1.3-1.5-2s-0.3-1.2-0.3-1.5
			s0-0.8,0.1-1.4l2,0.3c-0.1,2.2,0.9,3.3,2.9,3.8c1,0.2,2,0,2.8-0.6s1.3-1.4,1.5-2.4C278.4,43.1,277.2,41.7,274.7,41.3z"/>
		<path class="st6" d="M287.5,50.5l7.6,1.4l-0.3,1.8l-11.8-2l8-6.5c1.5-1.2,2.4-2.1,3.1-2.8c0.6-0.7,0.9-1.4,1-2.1
			c0.2-0.9,0-1.8-0.6-2.7c-0.6-0.8-1.4-1.3-2.4-1.5c-2.2-0.3-3.6,0.6-4.3,3.1l-2.1-0.3c0.2-0.8,0.5-1.4,0.7-1.8
			c0.2-0.5,0.6-0.9,1-1.4c0.5-0.5,1.2-0.9,2.1-1.2c0.9-0.2,1.8-0.3,2.8-0.1c1.6,0.3,2.9,1,3.8,2.3s1.3,2.5,0.9,4.2
			c-0.2,1-0.6,2-1.3,2.8c-0.7,0.8-2,2-3.9,3.6L287.5,50.5z"/>
	</g>
</g>
<circle class="st8" cx="248.1" cy="248.1" r="231.2"/>
</svg>
